{
  "http.port": 8082,
  "host": "localhost",
  "port": 23525,
  "database": "reactivity",
  "driver_class": "com.mysql.cj.jdbc.Driver",
  "username": "root",
  "password": "root",
  "max_pool_size": 2
}
